[gd_scene load_steps=3 format=3 uid="uid://dg8eu7dw7p42t"]

[ext_resource type="Script" path="res://Components/ChangeSceneButton.cs" id="1_gtt3o"]
[ext_resource type="PackedScene" uid="uid://bhrrermdh7yaj" path="res://Map/Map.tscn" id="2_0xon1"]

[node name="CenterContainer" type="CenterContainer"]
anchors_preset = 8
anchor_left = 0.5
anchor_top = 0.5
anchor_right = 0.5
anchor_bottom = 0.5
offset_left = -220.0
offset_top = -110.5
offset_right = 220.0
offset_bottom = 110.5
grow_horizontal = 2
grow_vertical = 2

[node name="VBoxContainer" type="VBoxContainer" parent="."]
custom_minimum_size = Vector2(150, 100)
layout_mode = 2
alignment = 1

[node name="HBoxContainer" type="HBoxContainer" parent="VBoxContainer"]
layout_mode = 2

[node name="CommandsPlayer1" type="Label" parent="VBoxContainer/HBoxContainer"]
layout_mode = 2
text = "Botões Do Primeiro Jogador

W: Move para Cima
A: Move para Esquerda
S: Move para Baixo
D: Move para Direita
Espaço: Coloca Bomba
"

[node name="CommandsPlayer2" type="Label" parent="VBoxContainer/HBoxContainer"]
layout_mode = 2
text = "Botões do Segundo Jogador

Seta Cima: Move para Cima
Seta Esquerda: Move para Esquerda
Seta Baixo: Move para Baixo
Seta Direita: Move para Direita
Enter: Coloca Bomba"

[node name="VBoxContainer" type="VBoxContainer" parent="VBoxContainer"]
layout_mode = 2

[node name="ChangeSceneButton" type="Button" parent="VBoxContainer"]
layout_mode = 2
text = "JOGAR"
script = ExtResource("1_gtt3o")
scene = ExtResource("2_0xon1")
