[gd_scene load_steps=8 format=3 uid="uid://bhrrermdh7yaj"]

[ext_resource type="Script" path="res://Map/Map.cs" id="1_p10g2"]
[ext_resource type="Texture2D" uid="uid://dvkb5vy58ype0" path="res://Map/Sprites/Terrain.png" id="1_xnm3q"]
[ext_resource type="PackedScene" uid="uid://bsmjdv8s2rhaa" path="res://Bomb/Bomb.tscn" id="2_u4tum"]
[ext_resource type="Script" path="res://Map/MapRenderer.cs" id="3_cjqug"]
[ext_resource type="PackedScene" uid="uid://c70gl5d7q5va4" path="res://HUB/hub.tscn" id="5_08j8s"]

[sub_resource type="TileSetAtlasSource" id="TileSetAtlasSource_1vjur"]
texture = ExtResource("1_xnm3q")
texture_region_size = Vector2i(32, 32)
0:0/0 = 0
0:0/0/terrain_set = 0
0:0/0/terrain = 0
0:0/0/physics_layer_0/linear_velocity = Vector2(0, 0)
0:0/0/physics_layer_0/angular_velocity = 0.0
0:0/0/physics_layer_1/linear_velocity = Vector2(0, 0)
0:0/0/physics_layer_1/angular_velocity = 0.0
0:0/0/physics_layer_2/linear_velocity = Vector2(0, 0)
0:0/0/physics_layer_2/angular_velocity = 0.0
1:0/0 = 0
1:0/0/terrain_set = 1
1:0/0/terrain = 0
1:0/0/physics_layer_0/linear_velocity = Vector2(0, 0)
1:0/0/physics_layer_0/angular_velocity = 0.0
1:0/0/physics_layer_0/polygon_0/points = PackedVector2Array(-16, -16, 16, -16, 16, 16, -16, 16)
1:0/0/physics_layer_1/linear_velocity = Vector2(0, 0)
1:0/0/physics_layer_1/angular_velocity = 0.0
1:0/0/physics_layer_2/linear_velocity = Vector2(0, 0)
1:0/0/physics_layer_2/angular_velocity = 0.0
2:0/0 = 0
2:0/0/terrain_set = 2
2:0/0/terrain = 0
2:0/0/physics_layer_0/linear_velocity = Vector2(0, 0)
2:0/0/physics_layer_0/angular_velocity = 0.0
2:0/0/physics_layer_0/polygon_0/points = PackedVector2Array(-16, -16, 16, -16, 16, 16, -16, 16)
2:0/0/physics_layer_1/linear_velocity = Vector2(0, 0)
2:0/0/physics_layer_1/angular_velocity = 0.0
2:0/0/physics_layer_2/linear_velocity = Vector2(0, 0)
2:0/0/physics_layer_2/angular_velocity = 0.0
3:0/0 = 0
3:0/0/terrain_set = 3
3:0/0/terrain = 0
3:0/0/physics_layer_0/linear_velocity = Vector2(0, 0)
3:0/0/physics_layer_0/angular_velocity = 0.0
3:0/0/physics_layer_1/linear_velocity = Vector2(0, 0)
3:0/0/physics_layer_1/angular_velocity = 0.0
3:0/0/physics_layer_1/polygon_0/points = PackedVector2Array(-16, -16, 16, -16, 16, 16, -16, 16)
3:0/0/physics_layer_2/linear_velocity = Vector2(0, 0)
3:0/0/physics_layer_2/angular_velocity = 0.0
4:0/0 = 0
4:0/0/terrain_set = 4
4:0/0/terrain = 0
4:0/0/physics_layer_0/linear_velocity = Vector2(0, 0)
4:0/0/physics_layer_0/angular_velocity = 0.0
4:0/0/physics_layer_1/linear_velocity = Vector2(0, 0)
4:0/0/physics_layer_1/angular_velocity = 0.0
4:0/0/physics_layer_2/linear_velocity = Vector2(0, 0)
4:0/0/physics_layer_2/angular_velocity = 0.0
4:0/0/physics_layer_2/polygon_0/points = PackedVector2Array(-9.625, -0.25, -6.625, -4.75, -0.125, -9, 5.875, -4.5, 9.375, -0.25, 5.375, 5, -0.375, 8.5, -5.875, 4.25)

[sub_resource type="TileSet" id="TileSet_5v63e"]
tile_size = Vector2i(32, 32)
physics_layer_0/collision_layer = 1
physics_layer_0/collision_mask = 0
physics_layer_1/collision_layer = 2
physics_layer_1/collision_mask = 0
physics_layer_2/collision_layer = 4
physics_layer_2/collision_mask = 0
terrain_set_0/mode = 0
terrain_set_0/terrain_0/name = "Floor"
terrain_set_0/terrain_0/color = Color(1, 1, 1, 1)
terrain_set_1/mode = 0
terrain_set_1/terrain_0/name = "Wall"
terrain_set_1/terrain_0/color = Color(0, 0, 0, 1)
terrain_set_2/mode = 0
terrain_set_2/terrain_0/name = "Obstacle"
terrain_set_2/terrain_0/color = Color(0, 1, 1, 1)
terrain_set_3/mode = 0
terrain_set_3/terrain_0/name = "Explosion"
terrain_set_3/terrain_0/color = Color(1, 0, 0, 1)
terrain_set_4/mode = 0
terrain_set_4/terrain_0/name = "Hole"
terrain_set_4/terrain_0/color = Color(0.5, 0.34375, 0.25, 1)
sources/0 = SubResource("TileSetAtlasSource_1vjur")

[node name="Node2D" type="Node2D" node_paths=PackedStringArray("renderer")]
script = ExtResource("1_p10g2")
renderer = NodePath("TileMap")
BombScene = ExtResource("2_u4tum")

[node name="TileMap" type="TileMap" parent="."]
tile_set = SubResource("TileSet_5v63e")
cell_quadrant_size = 32
format = 2
script = ExtResource("3_cjqug")

[node name="HUB" parent="." instance=ExtResource("5_08j8s")]
